Real Estate Prediction Using Boosting Tree (XGBoost)
…
Show the code

xgb_grid

Table 2: XGBoost Tune Grid

Warning: `grid_latin_hypercube()` was deprecated in dials 1.3.0.
ℹ Please use `grid_space_filling()` instead.

# A tibble: 30 × 6
   tree_depth min_n loss_reduction sample_size  mtry learn_rate
        <int> <int>          <dbl>       <dbl> <int>      <dbl>
 1          5    32       1.17e- 6       0.529     4   8.06e- 3
 2          6    16       3.05e- 1       0.446     3   5.03e- 7
 3         15    16       3.58e- 9       0.566     2   2.56e- 6
 4         13    36       5.57e- 1       0.637     3   7.82e- 6
 5         10     7       2.58e- 4       0.668     5   7.03e-10
 6          5    20       1.11e- 2       0.491     7   5.75e- 3
 7          8    13       3.64e-10       0.339     6   1.05e- 7
 8         13    25       2.87e+ 0       0.937     1   2.94e-10
 9          4    31       1.55e+ 0       0.827     2   8.75e- 7
10          5    14       7.17e- 4       0.771     5   1.64e-10
# ℹ 20 more rows
…
